{
  "type": "service_account",
  "project_id": "heroic-goal-320307",
  "private_key_id": "55a21fa89f1309e3f96743d29b9e57b1c0e4e3a4",
  "private_key": "-----BEGIN PRIVATE KEY-----\nMIIEvgIBADANBgkqhkiG9w0BAQEFAASCBKgwggSkAgEAAoIBAQDhem2/+fUbh32e\n1AKRzCFllPXMwsZTwBnk2CGiOtZpcXWclHMl1m9CSuf/aH+X6iJdozfvAgs+1LlH\nihJfJ2n1Ruy66SFif0fUz3ESLiJgjHyr1CMvbfs2OY4XY2hmiR7D9xM6ekYtQ6ix\nawtry6z3SduUVEl1ibs93fZABdL4EzNEpqvit4DAaBV452iZZERmAAM/W83mMxw2\nS4YQ0zeTB7Dpcf7CSFYNw3QPS3TzBb+oRlbgn2y5gOq1mnqLxhrh/1xcOAeyN0/m\nm3jokjGIQmmoZpTveKxQU6n8XY7zZ3PqiK1zxLTD6CFeCJJuHnq2988UlgTEHZV9\nUAbHfT3vAgMBAAECggEAbcC2wF4uqX5Lru6a65YV4YjfFpLuj+Cvmf18bae/K2c/\nbP6ziAT3dijZAbE/flZI8RRcSxpPF//ayhBSvf+E64/g9mA5UGUNNXDeJI/RSvbH\nTqp9j/40bCIa4JaSQGrZT2Eqemn/U9QdvnKRBiEHqf1JBUv7z9tBia1LysEq/nYM\nNre9F+7/IQSrL9VezIdNwO24PbdkYRXuZGNIUXjtmuMVcTznyIYcb5MavRRQeK5c\nA0zvU0TsCCyFNKEUk6gDhQBLxP822e4xhEI/B8orVGmNnKUpfs1dI+hOjHEUhIZO\nmgTDTUUwUn6m7YHoWgK7Z1OH53837TJzurl2WupUNQKBgQDxFoIQenCTEQeVqGIQ\nx36blAn3NyughY0wIIF0ZNQqFPCzd/t+3hZ3/xAc1kE9dIBCqUDM26FQJwjP818j\n3FpXO8NbJLy5nbiTl6p96HIXfjAopRHxVbnw1EfLEEgnTylb1uLAvN+1sYJEySb4\ntb3pbh4ZRPsXctel9Jd2m61MNQKBgQDvbMADBB/7nLySaY9t6dWwAjci0sfz0ZjL\nJvQLwFyVOVvMHYHOevXegmRXL2rloLFrWBEiWf2uCzAnXV4tYw4F+8YanxJnbwlG\nV4m3kg68GT1JnkEPofzgyEiqBxpDqCbw6IoIB/ZxHvsx0Tv2asd+Ax49z0JWD1Er\n1ABhwHT+EwKBgQDYUr7v9D1Q6OXqVoVv0uF6zfHHPlzKEyultHUUMGjjPZjhIFas\n9rAoidg2V9WARCnWJrJ7XtM27V+N4C1NKypwvbJD9QnWb3wwCtWzVkARbmvd/IfG\nCYrnWkL1JS3o/7H3szARiygciyN9fxSV89VtQB6HxAqddrGjOn4xsexkxQKBgQDs\nuKxcDw8EOmLjrAUI2oLRpE8ZWigidKBKdDglCks/q1eMx7vZCA/isS8+WH6rjSb+\nCDPgr/M2yo8QzKrZ2y85UUb8eTy8Ebes2c4rNvjkl1vWVubi6vlY0g2uNpmMPUxL\nMs+Owzixfb1E8ygDKm4VtEWJPUvMRRava8v42k2SCwKBgHmtFXxKpl3vkww0G2nN\nFLx9GNBTaM2FPSKlHBFxSk/epY+493pS+yv14S5QqfnSaDyywknG4hDAqypW7NTv\nqaLetuI2ZqwZ9E0507yDUCNyUldMKg2+QAldLJdA4AimvNUiB7C3GHvixdTbeG5O\nkLZb0p69VDZ+ry+WRN1sTBSG\n-----END PRIVATE KEY-----\n",
  "client_email": "dogu-tts@heroic-goal-320307.iam.gserviceaccount.com",
  "client_id": "111040121894631367706",
  "auth_uri": "https://accounts.google.com/o/oauth2/auth",
  "token_uri": "https://oauth2.googleapis.com/token",
  "auth_provider_x509_cert_url": "https://www.googleapis.com/oauth2/v1/certs",
  "client_x509_cert_url": "https://www.googleapis.com/robot/v1/metadata/x509/dogu-tts%40heroic-goal-320307.iam.gserviceaccount.com"
}